<svg xmlns="http://www.w3.org/2000/svg" width="35" height="35" viewBox="0 0 35 35">
    <g fill="none" fill-rule="evenodd">
        <path fill="#FFF" stroke="#00A9E0" stroke-width=".9" d="M17.32 1c-2.826 0-5.484.72-7.801 1.983C4.444 5.75 1 11.133 1 17.32c0 9.014 7.307 16.32 16.32 16.32s16.32-7.306 16.32-16.32c0-.258-.008-.515-.02-.77C33.218 7.895 26.075 1 17.32 1z"/>
        <g fill="#00A9E0">
            <g transform="translate(10.6 11.8)">
                <rect width="3.6" height="7.2" rx="1.8"/>
                <rect width="3.6" height="7.2" x="10.2" rx="1.8"/>
            </g>
            <path d="M13 20.5c0 2.333 1.445 3.5 4.334 3.5 2.89 0 4.334-1.167 4.334-3.5H13z"/>
        </g>
    </g>
</svg>
